{
  "results": [
    {
      "openverse_id": "abc123",
      "title": "Sunset over the hills",
      "indexed_on": "2024-12-10T12:34:56Z",
      "foreign_landing_url": "https://example.com/media/abc123",
      "url": "https://example.com/media/abc123.jpg",
      "creator": "John Doe",
      "creator_url": "https://example.com/creator/johndoe",
      "license": "cc-by",
      "license_version": "4.0",
      "license_url": "https://creativecommons.org/licenses/by/4.0/",
      "attribution": "John Doe / CC BY 4.0",
      "source": "example_source",
      "category": "photograph",
      "file_size": 204800,
      "file_type": "image/jpeg",
      "mature": false,
      "thumbnail_url": "https://example.com/media/abc123_thumb.jpg",
      "height": 1080,
      "width": 1920,
      "duration": null,
      "media_type": "image"
    },
    {
      "openverse_id": "def456",
      "title": "Ambient Loop",
      "indexed_on": "2024-12-10T12:35:00Z",
      "foreign_landing_url": "https://example.com/media/def456",
      "url": "https://example.com/media/def456.mp3",
      "creator": "Jane Smith",
      "creator_url": "https://example.com/creator/janesmith",
      "license": "cc0",
      "license_version": "1.0",
      "license_url": "https://creativecommons.org/publicdomain/zero/1.0/",
      "attribution": "Jane Smith / CC0",
      "source": "example_audio_source",
      "category": "music",
      "file_size": 512000,
      "file_type": "audio/mpeg",
      "mature": false,
      "thumbnail_url": null,
      "height": null,
      "width": null,
      "duration": 120,
      "media_type": "audio"
    },
    {
      "openverse_id": "abc123",
      "title": "Sunset over the hills",
      "indexed_on": "2024-12-10T12:34:56Z",
      "foreign_landing_url": "https://example.com/media/abc123",
      "url": "https://example.com/media/abc123.jpg",
      "creator": "John Doe",
      "creator_url": "https://example.com/creator/johndoe",
      "license": "cc-by",
      "license_version": "4.0",
      "license_url": "https://creativecommons.org/licenses/by/4.0/",
      "attribution": "John Doe / CC BY 4.0",
      "source": "example_source",
      "category": "photograph",
      "file_size": 204800,
      "file_type": "image/jpeg",
      "mature": false,
      "thumbnail_url": "https://example.com/media/abc123_thumb.jpg",
      "height": 1080,
      "width": 1920,
      "duration": null,
      "media_type": "image"
    },
    {
      "openverse_id": "def456",
      "title": "Ambient Loop",
      "indexed_on": "2024-12-10T12:35:00Z",
      "foreign_landing_url": "https://example.com/media/def456",
      "url": "https://example.com/media/def456.mp3",
      "creator": "Jane Smith",
      "creator_url": "https://example.com/creator/janesmith",
      "license": "cc0",
      "license_version": "1.0",
      "license_url": "https://creativecommons.org/publicdomain/zero/1.0/",
      "attribution": "Jane Smith / CC0",
      "source": "example_audio_source",
      "category": "music",
      "file_size": 512000,
      "file_type": "audio/mpeg",
      "mature": false,
      "thumbnail_url": null,
      "height": null,
      "width": null,
      "duration": 120,
      "media_type": "audio"
    },
    {
      "openverse_id": "abc123",
      "title": "Sunset over the hills",
      "indexed_on": "2024-12-10T12:34:56Z",
      "foreign_landing_url": "https://example.com/media/abc123",
      "url": "https://example.com/media/abc123.jpg",
      "creator": "John Doe",
      "creator_url": "https://example.com/creator/johndoe",
      "license": "cc-by",
      "license_version": "4.0",
      "license_url": "https://creativecommons.org/licenses/by/4.0/",
      "attribution": "John Doe / CC BY 4.0",
      "source": "example_source",
      "category": "photograph",
      "file_size": 204800,
      "file_type": "image/jpeg",
      "mature": false,
      "thumbnail_url": "https://example.com/media/abc123_thumb.jpg",
      "height": 1080,
      "width": 1920,
      "duration": null,
      "media_type": "image"
    },
    {
      "openverse_id": "def456",
      "title": "Ambient Loop",
      "indexed_on": "2024-12-10T12:35:00Z",
      "foreign_landing_url": "https://example.com/media/def456",
      "url": "https://example.com/media/def456.mp3",
      "creator": "Jane Smith",
      "creator_url": "https://example.com/creator/janesmith",
      "license": "cc0",
      "license_version": "1.0",
      "license_url": "https://creativecommons.org/publicdomain/zero/1.0/",
      "attribution": "Jane Smith / CC0",
      "source": "example_audio_source",
      "category": "music",
      "file_size": 512000,
      "file_type": "audio/mpeg",
      "mature": false,
      "thumbnail_url": null,
      "height": null,
      "width": null,
      "duration": 120,
      "media_type": "audio"
    },
    {
      "openverse_id": "abc123",
      "title": "Sunset over the hills",
      "indexed_on": "2024-12-10T12:34:56Z",
      "foreign_landing_url": "https://example.com/media/abc123",
      "url": "https://example.com/media/abc123.jpg",
      "creator": "John Doe",
      "creator_url": "https://example.com/creator/johndoe",
      "license": "cc-by",
      "license_version": "4.0",
      "license_url": "https://creativecommons.org/licenses/by/4.0/",
      "attribution": "John Doe / CC BY 4.0",
      "source": "example_source",
      "category": "photograph",
      "file_size": 204800,
      "file_type": "image/jpeg",
      "mature": false,
      "thumbnail_url": "https://example.com/media/abc123_thumb.jpg",
      "height": 1080,
      "width": 1920,
      "duration": null,
      "media_type": "image"
    },
    {
      "openverse_id": "def456",
      "title": "Ambient Loop",
      "indexed_on": "2024-12-10T12:35:00Z",
      "foreign_landing_url": "https://example.com/media/def456",
      "url": "https://example.com/media/def456.mp3",
      "creator": "Jane Smith",
      "creator_url": "https://example.com/creator/janesmith",
      "license": "cc0",
      "license_version": "1.0",
      "license_url": "https://creativecommons.org/publicdomain/zero/1.0/",
      "attribution": "Jane Smith / CC0",
      "source": "example_audio_source",
      "category": "music",
      "file_size": 512000,
      "file_type": "audio/mpeg",
      "mature": false,
      "thumbnail_url": null,
      "height": null,
      "width": null,
      "duration": 120,
      "media_type": "audio"
    },
    {
      "openverse_id": "abc123",
      "title": "Sunset over the hills",
      "indexed_on": "2024-12-10T12:34:56Z",
      "foreign_landing_url": "https://example.com/media/abc123",
      "url": "https://example.com/media/abc123.jpg",
      "creator": "John Doe",
      "creator_url": "https://example.com/creator/johndoe",
      "license": "cc-by",
      "license_version": "4.0",
      "license_url": "https://creativecommons.org/licenses/by/4.0/",
      "attribution": "John Doe / CC BY 4.0",
      "source": "example_source",
      "category": "photograph",
      "file_size": 204800,
      "file_type": "image/jpeg",
      "mature": false,
      "thumbnail_url": "https://example.com/media/abc123_thumb.jpg",
      "height": 1080,
      "width": 1920,
      "duration": null,
      "media_type": "image"
    },
    {
      "openverse_id": "def456",
      "title": "Ambient Loop",
      "indexed_on": "2024-12-10T12:35:00Z",
      "foreign_landing_url": "https://example.com/media/def456",
      "url": "https://example.com/media/def456.mp3",
      "creator": "Jane Smith",
      "creator_url": "https://example.com/creator/janesmith",
      "license": "cc0",
      "license_version": "1.0",
      "license_url": "https://creativecommons.org/publicdomain/zero/1.0/",
      "attribution": "Jane Smith / CC0",
      "source": "example_audio_source",
      "category": "music",
      "file_size": 512000,
      "file_type": "audio/mpeg",
      "mature": false,
      "thumbnail_url": null,
      "height": null,
      "width": null,
      "duration": 120,
      "media_type": "audio"
    },
    {
      "openverse_id": "abc123",
      "title": "Sunset over the hills",
      "indexed_on": "2024-12-10T12:34:56Z",
      "foreign_landing_url": "https://example.com/media/abc123",
      "url": "https://example.com/media/abc123.jpg",
      "creator": "John Doe",
      "creator_url": "https://example.com/creator/johndoe",
      "license": "cc-by",
      "license_version": "4.0",
      "license_url": "https://creativecommons.org/licenses/by/4.0/",
      "attribution": "John Doe / CC BY 4.0",
      "source": "example_source",
      "category": "photograph",
      "file_size": 204800,
      "file_type": "image/jpeg",
      "mature": false,
      "thumbnail_url": "https://example.com/media/abc123_thumb.jpg",
      "height": 1080,
      "width": 1920,
      "duration": null,
      "media_type": "image"
    },
    {
      "openverse_id": "def456",
      "title": "Ambient Loop",
      "indexed_on": "2024-12-10T12:35:00Z",
      "foreign_landing_url": "https://example.com/media/def456",
      "url": "https://example.com/media/def456.mp3",
      "creator": "Jane Smith",
      "creator_url": "https://example.com/creator/janesmith",
      "license": "cc0",
      "license_version": "1.0",
      "license_url": "https://creativecommons.org/publicdomain/zero/1.0/",
      "attribution": "Jane Smith / CC0",
      "source": "example_audio_source",
      "category": "music",
      "file_size": 512000,
      "file_type": "audio/mpeg",
      "mature": false,
      "thumbnail_url": null,
      "height": null,
      "width": null,
      "duration": 120,
      "media_type": "audio"
    },
    {
      "openverse_id": "abc123",
      "title": "Sunset over the hills",
      "indexed_on": "2024-12-10T12:34:56Z",
      "foreign_landing_url": "https://example.com/media/abc123",
      "url": "https://example.com/media/abc123.jpg",
      "creator": "John Doe",
      "creator_url": "https://example.com/creator/johndoe",
      "license": "cc-by",
      "license_version": "4.0",
      "license_url": "https://creativecommons.org/licenses/by/4.0/",
      "attribution": "John Doe / CC BY 4.0",
      "source": "example_source",
      "category": "photograph",
      "file_size": 204800,
      "file_type": "image/jpeg",
      "mature": false,
      "thumbnail_url": "https://example.com/media/abc123_thumb.jpg",
      "height": 1080,
      "width": 1920,
      "duration": null,
      "media_type": "image"
    },
    {
      "openverse_id": "def456",
      "title": "Ambient Loop",
      "indexed_on": "2024-12-10T12:35:00Z",
      "foreign_landing_url": "https://example.com/media/def456",
      "url": "https://example.com/media/def456.mp3",
      "creator": "Jane Smith",
      "creator_url": "https://example.com/creator/janesmith",
      "license": "cc0",
      "license_version": "1.0",
      "license_url": "https://creativecommons.org/publicdomain/zero/1.0/",
      "attribution": "Jane Smith / CC0",
      "source": "example_audio_source",
      "category": "music",
      "file_size": 512000,
      "file_type": "audio/mpeg",
      "mature": false,
      "thumbnail_url": null,
      "height": null,
      "width": null,
      "duration": 120,
      "media_type": "audio"
    },
    {
      "openverse_id": "abc123",
      "title": "Sunset over the hills",
      "indexed_on": "2024-12-10T12:34:56Z",
      "foreign_landing_url": "https://example.com/media/abc123",
      "url": "https://example.com/media/abc123.jpg",
      "creator": "John Doe",
      "creator_url": "https://example.com/creator/johndoe",
      "license": "cc-by",
      "license_version": "4.0",
      "license_url": "https://creativecommons.org/licenses/by/4.0/",
      "attribution": "John Doe / CC BY 4.0",
      "source": "example_source",
      "category": "photograph",
      "file_size": 204800,
      "file_type": "image/jpeg",
      "mature": false,
      "thumbnail_url": "https://example.com/media/abc123_thumb.jpg",
      "height": 1080,
      "width": 1920,
      "duration": null,
      "media_type": "image"
    },
    {
      "openverse_id": "def456",
      "title": "Ambient Loop",
      "indexed_on": "2024-12-10T12:35:00Z",
      "foreign_landing_url": "https://example.com/media/def456",
      "url": "https://example.com/media/def456.mp3",
      "creator": "Jane Smith",
      "creator_url": "https://example.com/creator/janesmith",
      "license": "cc0",
      "license_version": "1.0",
      "license_url": "https://creativecommons.org/publicdomain/zero/1.0/",
      "attribution": "Jane Smith / CC0",
      "source": "example_audio_source",
      "category": "music",
      "file_size": 512000,
      "file_type": "audio/mpeg",
      "mature": false,
      "thumbnail_url": null,
      "height": null,
      "width": null,
      "duration": 120,
      "media_type": "audio"
    },
    {
      "openverse_id": "abc123",
      "title": "Sunset over the hills",
      "indexed_on": "2024-12-10T12:34:56Z",
      "foreign_landing_url": "https://example.com/media/abc123",
      "url": "https://example.com/media/abc123.jpg",
      "creator": "John Doe",
      "creator_url": "https://example.com/creator/johndoe",
      "license": "cc-by",
      "license_version": "4.0",
      "license_url": "https://creativecommons.org/licenses/by/4.0/",
      "attribution": "John Doe / CC BY 4.0",
      "source": "example_source",
      "category": "photograph",
      "file_size": 204800,
      "file_type": "image/jpeg",
      "mature": false,
      "thumbnail_url": "https://example.com/media/abc123_thumb.jpg",
      "height": 1080,
      "width": 1920,
      "duration": null,
      "media_type": "image"
    },
    {
      "openverse_id": "def456",
      "title": "Ambient Loop",
      "indexed_on": "2024-12-10T12:35:00Z",
      "foreign_landing_url": "https://example.com/media/def456",
      "url": "https://example.com/media/def456.mp3",
      "creator": "Jane Smith",
      "creator_url": "https://example.com/creator/janesmith",
      "license": "cc0",
      "license_version": "1.0",
      "license_url": "https://creativecommons.org/publicdomain/zero/1.0/",
      "attribution": "Jane Smith / CC0",
      "source": "example_audio_source",
      "category": "music",
      "file_size": 512000,
      "file_type": "audio/mpeg",
      "mature": false,
      "thumbnail_url": null,
      "height": null,
      "width": null,
      "duration": 120,
      "media_type": "audio"
    }
  ],
  "page": 1,
  "page_size": 18,
  "total_count": 20,
  "total_pages": 2
}
