{ 
    "count": 3,
    "next": "/api/accounts/users/{{username}}/search-history/?page=2&page_size=2",
    "previous": null,
    "results": [
        { "id":1,"search_key":"q","search_value":"foo","searched_at":"2025-05-20T12:00:00Z"},
        { "id":2,"search_key":"tag","search_value":"bar","searched_at":"2025-05-21T15:30:00Z"}
    ]
}
